HW 02
…
    mutate(
        year = str_extract(year, "\\d{4}-\\d{4}"),
        year = str_extract(year, "\\d{4}$"),
        year = as.integer(year)
    ) |>

    select(-total)

pac

# A tibble: 2,394 × 6
    year pac_name_affiliate   country parent_company dems  repubs
   <int> <chr>                <chr>   <chr>          <chr> <chr> 
 1  2000 7-Eleven             Japan   Ito-Yokado     $1500 $7000 
 2  2000 ABB Group            Switze… Asea Brown Bo… $170… $28500
 3  2000 Accenture            UK      Accenture plc  $230… $52984
 4  2000 ACE INA              UK      ACE Group      $125… $26000
 5  2000 Acuson Corp (Siemen… Germany Siemens AG     $2000 $0    
 6  2000 Adtranz (DaimlerChr… Germany DaimlerChrysl… $100… $500  
 7  2000 AE Staley Manufactu… UK      Tate & Lyle    $100… $14000
 8  2000 AEGON USA (AEGON NV) Nether… Aegon NV       $105… $47750
 9  2000 AIM Management Group UK      AMVESCAP       $100… $15000
10  2000 Air Liquide America  France  L'Air Liquide… $0    $0    
# ℹ 2,384 more rows
pac <- pac |>
    pivot_longer(
        cols = c(dems, repubs),
        names_to = "party",
        values_to = "amount"
    ) |>

    mutate(
        amount = str_remove(amount, "\\$"),
        amount = as.integer(amount)
    )

pac

# A tibble: 4,788 × 6
    year pac_name_affiliate   country parent_company party amount
   <int> <chr>                <chr>   <chr>          <chr>  <int>
 1  2000 7-Eleven             Japan   Ito-Yokado     dems    1500
 2  2000 7-Eleven             Japan   Ito-Yokado     repu…   7000
 3  2000 ABB Group            Switze… Asea Brown Bo… dems   17000
 4  2000 ABB Group            Switze… Asea Brown Bo… repu…  28500
 5  2000 Accenture            UK      Accenture plc  dems   23000
 6  2000 Accenture            UK      Accenture plc  repu…  52984
 7  2000 ACE INA              UK      ACE Group      dems   12500
 8  2000 ACE INA              UK      ACE Group      repu…  26000
 9  2000 Acuson Corp (Siemen… Germany Siemens AG     dems    2000
10  2000 Acuson Corp (Siemen… Germany Siemens AG     repu…      0
# ℹ 4,778 more rows

uk_spending <- pac |>
    filter(country == "UK") |>
    group_by(year, party) |>

    summarise(
        totals = sum(amount[amount != 0],
                     na.rm = TRUE), 
        .groups = "drop") |>

    arrange(year, party)

uk_spending

# A tibble: 24 × 3
    year party   totals
   <int> <chr>    <int>
 1  2000 dems    975725
 2  2000 repubs 2057518
 3  2002 dems   1046183
 4  2002 repubs 2002772
 5  2004 dems   1188801
 6  2004 repubs 2311101
 7  2006 dems   1543755
 8  2006 repubs 3057736
 9  2008 dems   2690413
10  2008 repubs 2842956
# ℹ 14 more rows
…
